<?xml version="1.0" standalone="no"?>
<!DOCTYPE svg PUBLIC "-//W3C//DTD SVG 1.1//EN" "http://www.w3.org/Graphics/SVG/1.1/DTD/svg11.dtd" >
<svg xmlns="http://www.w3.org/2000/svg">
<metadata>
This is a custom SVG webfont generated by Font Squirrel.
Copyright   : HTF Gotham Copr 2000 The Hoefler Type Foundry Inc Info wwwtypographycom
</metadata>
<defs>
<font id="GothamMedium" horiz-adv-x="1372" >
<font-face units-per-em="2048" ascent="1638" descent="-410" />
<missing-glyph horiz-adv-x="614" />
<glyph unicode=" "  horiz-adv-x="614" />
<glyph unicode="&#x09;" horiz-adv-x="614" />
<glyph unicode="&#xa0;" horiz-adv-x="614" />
<glyph unicode="!" horiz-adv-x="618" d="M164 1362v72h291v-72l-76 -909h-137zM174 0v281h272v-281h-272z" />
<glyph unicode="&#x22;" horiz-adv-x="997" d="M123 821l47 613h281v-11l-199 -602h-129zM571 821l50 613h280v-11l-201 -602h-129z" />
<glyph unicode="#" horiz-adv-x="1433" d="M80 330v213h221l59 356h-204v213h241l56 322h219l-56 -322h336l54 322h219l-56 -322h183v-213h-219l-60 -356h205v-213h-242l-57 -330h-219l57 330h-336l-55 -330h-219l57 330h-184zM518 543h336l61 356h-335z" />
<glyph unicode="$" horiz-adv-x="1314" d="M100 207l131 186q184 -150 361 -176v401q-229 59 -333.5 155.5t-104.5 264.5v4q0 164 117.5 269.5t312.5 122.5v118h178v-122q211 -27 385 -156l-115 -193q-133 100 -278 131v-389q233 -59 338.5 -158.5t105.5 -263.5v-4q0 -166 -120 -272.5t-316 -122.5v-203h-178v205 q-267 31 -484 203zM395 1053q0 -68 42 -111t155 -76v361q-94 -8 -145.5 -54.5t-51.5 -115.5v-4zM754 209q96 8 149 54t53 120v4q0 70 -44 114t-158 79v-371z" />
<glyph unicode="%" horiz-adv-x="1738" d="M98 1079v4q0 152 95.5 259.5t244.5 107.5q147 0 241.5 -105.5t94.5 -257.5v-4q0 -152 -95 -259t-245 -107q-147 0 -241.5 105t-94.5 257zM244 0l1048 1434h203l-1049 -1434h-202zM281 1083q0 -88 45 -148.5t112 -60.5q70 0 112 59.5t42 145.5v4q0 88 -45 148.5t-113 60.5 q-70 0 -111.5 -59t-41.5 -146v-4zM965 346v4q0 152 95 259.5t245 107.5q147 0 241 -105.5t94 -257.5v-4q0 -152 -95 -259t-245 -107q-147 0 -241 105t-94 257zM1147 350q0 -88 45 -148.5t113 -60.5q70 0 111.5 59.5t41.5 145.5v4q0 88 -45 148.5t-113 60.5 q-70 0 -111.5 -59.5t-41.5 -145.5v-4z" />
<glyph unicode="&#x26;" horiz-adv-x="1425" d="M80 389v4q0 270 305 402q-119 152 -119 299v4q0 150 113 255t299 105q168 0 274.5 -99t106.5 -247v-4q0 -254 -316 -373l246 -250q78 117 154 277l190 -100q-98 -197 -194 -328l225 -230l-186 -133l-191 195q-201 -186 -440 -186q-203 0 -335 112.5t-132 296.5zM334 397 q0 -90 67.5 -149.5t171.5 -59.5q139 0 271 125l-320 326q-190 -82 -190 -238v-4zM502 1083q0 -94 108 -213q225 82 226 224v4q0 72 -46.5 117t-117.5 45q-76 0 -123 -48.5t-47 -124.5v-4z" />
<glyph unicode="'" horiz-adv-x="550" d="M123 821l47 613h285v-11l-201 -602h-131z" />
<glyph unicode="(" horiz-adv-x="901" d="M129 588q0 565 567 876l109 -166q-221 -145 -324.5 -315t-103.5 -395.5t103.5 -395t324.5 -315.5l-109 -166q-567 312 -567 877z" />
<glyph unicode=")" horiz-adv-x="901" d="M98 -123q221 145 324.5 315.5t103.5 395.5t-103.5 395t-324.5 315l109 166q567 -313 567 -876t-567 -877z" />
<glyph unicode="*" horiz-adv-x="880" d="M119 1008l233 102l-233 102l74 125l204 -149l-28 250h143l-29 -250l205 149l74 -125l-234 -102l234 -102l-74 -125l-205 149l29 -250h-143l28 250l-204 -149z" />
<glyph unicode="+" horiz-adv-x="1310" d="M145 608v226h394v391h233v-391h393v-226h-393v-391h-233v391h-394z" />
<glyph unicode="," horiz-adv-x="550" d="M70 -193q175 34 175 172q0 10 -1 21h-105v281h273v-238q0 -166 -78 -247t-238 -93z" />
<glyph unicode="-" horiz-adv-x="835" d="M115 506v244h606v-244h-606z" />
<glyph unicode="." horiz-adv-x="550" d="M139 0v281h273v-281h-273z" />
<glyph unicode="/" horiz-adv-x="1067" d="M-51 -262l925 1896h216l-926 -1896h-215z" />
<glyph unicode="0" horiz-adv-x="1482" d="M117 713v4q0 313 175 527t451.5 214t449.5 -212t173 -525v-4q0 -313 -175 -527.5t-451.5 -214.5t-449.5 212.5t-173 525.5zM377 717q0 -217 101.5 -365.5t265 -148.5t263 146.5t99.5 363.5v4q0 217 -102.5 365.5t-264 148.5t-262 -145.5t-100.5 -364.5v-4z" />
<glyph unicode="1" horiz-adv-x="811" d="M53 1321l385 123h176v-1444h-249v1188l-259 -72z" />
<glyph unicode="2" horiz-adv-x="1255" d="M100 0v199l494 419q152 127 210 210t58 178q0 102 -65.5 162.5t-165.5 60.5q-94 0 -169 -51.5t-163 -163.5l-178 139q111 156 228.5 228.5t299.5 72.5q211 0 342 -117.5t131 -310.5v-4q0 -160 -82 -272.5t-290 -282.5l-295 -246h682v-221h-1037z" />
<glyph unicode="3" horiz-adv-x="1265" d="M88 227l176 164q160 -188 377 -188q106 0 177 60.5t71 156.5v4q0 104 -89 162.5t-241 58.5h-117l-41 158l387 411h-620v220h948v-189l-399 -409q184 -25 303 -122.5t119 -281.5v-4q0 -199 -140.5 -326t-361.5 -127q-342 0 -549 252z" />
<glyph unicode="4" horiz-adv-x="1394" d="M74 502l796 942h215v-916h205v-206h-205v-322h-241v322h-723zM373 528h471v568z" />
<glyph unicode="5" horiz-adv-x="1273" d="M96 195l156 182q184 -172 369 -172q129 0 206.5 67.5t77.5 180.5v4q0 109 -83 173t-214 64q-129 0 -264 -63l-151 100l40 703h857v-224h-639l-23 -336q113 41 227 41q219 0 358.5 -115.5t139.5 -334.5v-4q0 -219 -146.5 -352.5t-383.5 -133.5q-302 1 -527 220z" />
<glyph unicode="6" horiz-adv-x="1343" d="M117 674v4q0 342 160.5 561t453.5 219q240 0 438 -160l-135 -194q-162 125 -311 125q-156 0 -245 -126t-99 -329q147 143 342 144q217 0 359.5 -121t142.5 -330v-4q0 -211 -152.5 -349.5t-380.5 -138.5q-246 0 -399 150q-86 88 -130 215t-44 334zM387 451 q0 -111 82 -184.5t215 -73.5q131 0 209 73.5t78 186.5v4q0 109 -81 179.5t-212 70.5t-211 -73t-80 -179v-4z" />
<glyph unicode="7" horiz-adv-x="1247" d="M139 1212v222h1008v-191l-647 -1243h-283l643 1212h-721z" />
<glyph unicode="8" horiz-adv-x="1290" d="M98 389v4q0 242 258 350q-209 111 -209 320v4q0 166 141.5 276.5t356.5 110.5t356.5 -110.5t141.5 -276.5v-4q0 -209 -209 -320q258 -119 258 -344v-4q0 -188 -153.5 -301.5t-393.5 -113.5q-238 0 -392.5 113.5t-154.5 295.5zM344 406q0 -90 82 -153t219 -63t219 61.5 t82 154.5v4q0 96 -86 156.5t-215 60.5t-215 -60.5t-86 -156.5v-4zM389 1040q0 -94 73 -153.5t183.5 -59.5t183 59.5t72.5 151.5v4q0 84 -71.5 142.5t-184.5 58.5t-184.5 -57.5t-71.5 -141.5v-4z" />
<glyph unicode="9" horiz-adv-x="1343" d="M121 958v5q0 213 149.5 354t384.5 141q246 0 398 -151q174 -174 174 -547v-4q0 -350 -165 -565.5t-450 -215.5q-252 0 -458 172l137 193q160 -135 327 -135q156 0 248 124t99 326q-127 -152 -336 -151q-229 0 -368.5 123.5t-139.5 330.5zM373 971q0 -113 79.5 -184.5 t213 -71.5t212 74.5t78.5 183.5v4q0 115 -81.5 189.5t-217.5 74.5q-131 0 -207.5 -75.5t-76.5 -190.5v-4z" />
<glyph unicode=":" horiz-adv-x="571" d="M150 0v281h272v-281h-272zM150 801v280h272v-280h-272z" />
<glyph unicode=";" horiz-adv-x="571" d="M80 -193q175 34 175 172q0 10 -1 21h-104v281h272v-238q0 -166 -78 -247t-238 -93zM150 801v280h272v-280h-272z" />
<glyph unicode="&#x3c;" horiz-adv-x="1310" d="M143 610v221l977 453v-235l-731 -326l731 -328v-237z" />
<glyph unicode="=" horiz-adv-x="1310" d="M176 350v230h959v-230h-959zM176 862v230h959v-230h-959z" />
<glyph unicode="&#x3e;" horiz-adv-x="1310" d="M190 158v235l732 326l-732 328v237l977 -453v-221z" />
<glyph unicode="?" horiz-adv-x="1107" d="M49 1225q201 227 494 227q217 0 348 -112.5t131 -303.5v-4q0 -182 -112.5 -281.5t-299.5 -132.5l-20 -165h-166l-41 331l10 11q379 14 379 229v4q0 88 -63.5 141.5t-171.5 53.5q-182 0 -334 -162zM365 0v281h274v-281h-274z" />
<glyph unicode="@" horiz-adv-x="2007" d="M109 561q0 369 261 633t636 264q184 0 351 -67.5t284.5 -179t187.5 -259.5q69 -147 69 -305q0 -246 -113.5 -378t-283.5 -132q-213 0 -303 144q-139 -143 -317 -144q-158 0 -264.5 107.5t-106.5 279.5q0 213 141.5 362.5t323.5 149.5q190 0 289 -151l24 123l199 -31 l-90 -516q-10 -61 -10 -88q0 -68 43 -107t116 -39q115 0 193 109.5t78 310.5q0 291 -235.5 512t-575.5 221q-346 0 -581 -238.5t-235 -580.5q0 -344 236 -579.5t596 -235.5q268 0 506 137l37 -61q-252 -154 -543 -154q-389 0 -651 261t-262 632zM719 537q0 -104 59.5 -163 t157.5 -59q113 0 198 95.5t85 228.5q0 98 -61.5 159.5t-153.5 61.5q-115 0 -200 -94t-85 -229z" />
<glyph unicode="A" horiz-adv-x="1617" d="M61 0l631 1444h234l630 -1444h-266l-145 346h-678l-148 -346h-258zM559 569h494l-248 574z" />
<glyph unicode="B" horiz-adv-x="1478" d="M184 0v1434h643q248 0 375 -127q96 -96 96 -238v-4q0 -213 -204 -320q285 -96 284 -348v-4q0 -188 -143 -290.5t-387 -102.5h-664zM432 223h418q131 0 203.5 50.5t72.5 146.5v4q0 193 -295 192h-399v-393zM432 829h344q125 0 198 49.5t73 145.5v4q0 86 -66 134t-186 48 h-363v-381z" />
<glyph unicode="C" horiz-adv-x="1511" d="M121 713v4q0 311 209 526t530 215q186 0 316.5 -57.5t244.5 -165.5l-161 -186q-193 178 -402 178q-203 0 -338 -146.5t-135 -359.5v-4q0 -213 135 -361.5t338 -148.5q123 0 217 46t195 140l162 -164q-121 -127 -256.5 -190.5t-325.5 -63.5q-311 0 -520 213.5t-209 524.5z " />
<glyph unicode="D" horiz-adv-x="1601" d="M184 0v1434h535q334 0 548 -204t214 -509v-4q0 -307 -214 -512t-548 -205h-535zM436 229h283q223 0 360.5 135.5t137.5 348.5v4q0 213 -137.5 350t-360.5 137h-283v-975z" />
<glyph unicode="E" d="M184 0v1434h1063v-226h-811v-372h719v-226h-719v-385h821v-225h-1073z" />
<glyph unicode="F" horiz-adv-x="1343" d="M184 0v1434h1067v-230h-815v-391h723v-229h-723v-584h-252z" />
<glyph unicode="G" horiz-adv-x="1605" d="M121 713v4q0 307 210 524t529 217q180 0 307 -48t244 -146l-160 -191q-90 78 -181 116t-220 38q-197 0 -331 -148.5t-134 -357.5v-4q0 -223 135 -367.5t352 -144.5q201 0 347 108v269h-367v219h610v-602q-260 -223 -598 -224q-332 0 -537.5 210.5t-205.5 527.5z" />
<glyph unicode="H" horiz-adv-x="1556" d="M184 0v1434h252v-596h684v596h252v-1434h-252v604h-684v-604h-252z" />
<glyph unicode="I" horiz-adv-x="649" d="M199 0v1434h252v-1434h-252z" />
<glyph unicode="J" horiz-adv-x="1144" d="M43 211l166 170q133 -168 289 -168q104 0 165.5 70.5t61.5 210.5v940h258v-947q0 -248 -133 -381q-127 -127 -348 -126q-289 0 -459 231z" />
<glyph unicode="K" horiz-adv-x="1484" d="M184 0v1434h252v-721l682 721h309l-596 -617l623 -817h-305l-490 645l-223 -229v-416h-252z" />
<glyph unicode="L" horiz-adv-x="1267" d="M184 0v1434h252v-1205h754v-229h-1006z" />
<glyph unicode="M" horiz-adv-x="1777" d="M184 0v1434h269l436 -678l436 678h268v-1434h-252v1028l-452 -676h-8l-449 672v-1024h-248z" />
<glyph unicode="N" horiz-adv-x="1617" d="M184 0v1434h234l768 -992v992h248v-1434h-211l-791 1020v-1020h-248z" />
<glyph unicode="O" horiz-adv-x="1740" d="M121 713v4q0 307 213 524t538.5 217t536.5 -215t211 -522v-4q0 -307 -213 -524.5t-538.5 -217.5t-536.5 215.5t-211 522.5zM385 717q0 -213 138.5 -361.5t349 -148.5t347 146.5t136.5 359.5v4q0 213 -138.5 361.5t-349.5 148.5t-347 -146.5t-136 -359.5v-4z" />
<glyph unicode="P" horiz-adv-x="1368" d="M184 0v1434h566q250 0 397 -131.5t147 -348.5v-4q0 -231 -162.5 -360t-410.5 -129h-285v-461h-252zM436 688h293q141 0 225 71.5t84 184.5v4q0 123 -83 189.5t-226 66.5h-293v-516z" />
<glyph unicode="Q" horiz-adv-x="1740" d="M121 713v4q0 307 213 524t538.5 217t536.5 -215t211 -522v-4q0 -248 -145 -441l163 -139l-161 -180l-172 154q-190 -135 -437 -136q-326 0 -536.5 215.5t-210.5 522.5zM385 717q0 -213 138.5 -361.5t348.5 -148.5q137 0 246 69l-246 209l162 185l248 -226q74 113 74 269 v4q0 213 -138.5 361.5t-349.5 148.5t-347 -146.5t-136 -359.5v-4z" />
<glyph unicode="R" horiz-adv-x="1480" d="M184 0v1434h639q266 0 414 -144q119 -123 119 -309v-4q0 -170 -92.5 -279.5t-249.5 -154.5l387 -543h-297l-352 500h-4h-312v-500h-252zM436 723h369q135 0 215 65.5t80 174.5v4q0 115 -78 176t-219 61h-367v-481z" />
<glyph unicode="S" horiz-adv-x="1310" d="M88 209l152 180q215 -186 452 -186q117 0 185.5 49t68.5 131v4q0 80 -65.5 127t-257.5 92q-123 31 -205 61.5t-147.5 80t-95.5 120t-30 166.5v4q0 184 137.5 300t352.5 116q295 0 520 -180l-135 -191q-199 147 -389 148q-106 0 -170 -48t-64 -122v-4q0 -84 69 -130 t271 -96q238 -57 349.5 -152t111.5 -267v-4q0 -199 -141.5 -313.5t-370.5 -114.5q-342 0 -598 229z" />
<glyph unicode="T" horiz-adv-x="1327" d="M82 1200v234h1163v-234h-454v-1200h-254v1200h-455z" />
<glyph unicode="U" horiz-adv-x="1550" d="M162 608v826h252v-816q0 -197 96 -303t266 -106t265.5 102.5t95.5 296.5v826h252v-813q0 -313 -164 -478.5t-453 -165.5q-285 0 -447.5 162t-162.5 469z" />
<glyph unicode="V" horiz-adv-x="1536" d="M61 1434h279l432 -1102l430 1102h273l-596 -1444h-222z" />
<glyph unicode="W" horiz-adv-x="2285" d="M74 1434h272l342 -1063l352 1067h213l353 -1067l342 1063h264l-500 -1444h-217l-352 1030l-352 -1030h-218z" />
<glyph unicode="X" horiz-adv-x="1492" d="M76 0l522 729l-502 705h297l357 -514l358 514h289l-500 -701l520 -733h-297l-377 543l-378 -543h-289z" />
<glyph unicode="Y" horiz-adv-x="1466" d="M37 1434h297l401 -635l406 635h289l-570 -863v-571h-254v565z" />
<glyph unicode="Z" horiz-adv-x="1437" d="M133 0v186l846 1024h-819v224h1147v-187l-846 -1024h846v-223h-1174z" />
<glyph unicode="[" horiz-adv-x="929" d="M180 -266v1700h629v-195h-393v-1311h393v-194h-629z" />
<glyph unicode="\" horiz-adv-x="1067" d="M-23 1634h216l925 -1896h-215z" />
<glyph unicode="]" horiz-adv-x="929" d="M121 -72h393v1311h-393v195h631v-1700h-631v194z" />
<glyph unicode="^" horiz-adv-x="1024" d="M115 1010l309 426h176l309 -426h-190l-209 270l-209 -270h-186z" />
<glyph unicode="_" horiz-adv-x="1228" d="M-4 -135h1237v-193h-1237v193z" />
<glyph unicode="`" horiz-adv-x="1024" d="M254 1454l225 100l217 -335h-192z" />
<glyph unicode="a" horiz-adv-x="1202" d="M82 311v4q0 174 121 264.5t317 90.5q158 0 299 -45v20q0 113 -68.5 172.5t-197.5 59.5q-147 0 -309 -68l-68 199q201 90 412 90q236 0 355.5 -119t119.5 -338v-641h-246v133q-131 -156 -350 -156q-162 0 -273.5 89t-111.5 245zM328 324q0 -74 59 -117t150 -43 q125 0 205.5 63.5t80.5 163.5v62q-111 43 -248 43q-117 0 -182 -45t-65 -123v-4z" />
<glyph unicode="b" d="M156 0v1495h247v-594q143 203 367 203q205 0 354.5 -152.5t149.5 -408.5v-4q0 -256 -149.5 -409t-354.5 -153q-223 0 -367 191v-168h-247zM397 539q0 -152 93.5 -249t222.5 -97q131 0 220 95t89 251v4q0 154 -90 250t-219 96t-222.5 -97.5t-93.5 -248.5v-4z" />
<glyph unicode="c" horiz-adv-x="1169" d="M96 535v4q0 233 161 399t400 166q262 0 433 -186l-154 -166q-129 135 -281 135q-133 0 -222 -100.5t-89 -243.5v-4q0 -147 91 -248t233 -101q150 0 280 136l150 -148q-88 -98 -191.5 -150.5t-251.5 -52.5q-240 0 -399.5 163.5t-159.5 396.5z" />
<glyph unicode="d" d="M100 539v4q0 258 148.5 409.5t353.5 151.5q221 0 369 -191v582h248v-1495h-248v180q-143 -203 -369 -203q-203 0 -352.5 153t-149.5 409zM350 539q0 -154 91 -250t220.5 -96t221.5 97t92 249v4q0 152 -92 249t-221 97q-131 0 -221.5 -94.5t-90.5 -251.5v-4z" />
<glyph unicode="e" horiz-adv-x="1236" d="M96 537v4q0 236 149.5 399.5t379.5 163.5q246 0 382 -167t136 -415q0 -20 -4 -69h-795q20 -129 104 -202t207 -73q160 0 293 129l146 -129q-168 -203 -443 -203q-238 0 -396.5 157t-158.5 405zM342 616h555q-12 125 -84 205t-190 80q-113 0 -189 -79t-92 -206z" />
<glyph unicode="f" horiz-adv-x="770" d="M74 868v207h137v78q0 180 88 268q86 86 244 86q104 0 200 -28v-209q-80 27 -145 26q-143 0 -143 -163v-60h286v-205h-282v-868h-248v868h-137z" />
<glyph unicode="g" d="M100 592v4q0 229 146.5 368.5t345.5 139.5q225 0 379 -184v161h248v-860q0 -270 -138 -407q-145 -145 -444 -146q-270 0 -483 129l92 187q184 -115 385 -115q166 0 254 85t88 247v84q-154 -199 -381 -199q-201 0 -346.5 138.5t-145.5 367.5zM350 594q0 -131 89 -215 t218 -84q131 0 224.5 84t93.5 213v4q0 131 -93.5 215t-224.5 84t-219 -83t-88 -214v-4z" />
<glyph unicode="h" horiz-adv-x="1269" d="M156 0v1495h247v-582q129 190 338 191q180 0 282.5 -112.5t102.5 -303.5v-688h-247v614q0 127 -60.5 196t-171.5 69q-109 0 -176.5 -72t-67.5 -197v-610h-247z" />
<glyph unicode="i" horiz-adv-x="585" d="M160 1247v236h266v-236h-266zM170 0v1081h248v-1081h-248z" />
<glyph unicode="j" horiz-adv-x="585" d="M-16 -125q37 -6 69 -6q117 0 117 131v1081h248v-1095q0 -319 -316 -320q-53 0 -118 10v199zM160 1247v236h266v-236h-266z" />
<glyph unicode="k" horiz-adv-x="1191" d="M156 0v1495h247v-893l449 479h301l-430 -440l444 -641h-286l-326 467l-152 -158v-309h-247z" />
<glyph unicode="l" horiz-adv-x="585" d="M170 0v1495h248v-1495h-248z" />
<glyph unicode="m" horiz-adv-x="1945" d="M156 0v1081h247v-163q135 186 330 186q225 0 322 -191q145 190 366 191q178 0 278.5 -108.5t100.5 -305.5v-690h-248v614q0 129 -57 197t-161.5 68t-168 -71t-63.5 -198v-610h-248v616q0 125 -57.5 194t-162 69t-168 -73t-63.5 -198v-608h-247z" />
<glyph unicode="n" horiz-adv-x="1269" d="M156 0v1081h247v-168q129 190 338 191q180 0 282.5 -112.5t102.5 -303.5v-688h-247v614q0 127 -60.5 196t-171.5 69q-109 0 -176.5 -72t-67.5 -197v-610h-247z" />
<glyph unicode="o" horiz-adv-x="1345" d="M96 535v4q0 236 166 400.5t412 164.5t410.5 -164t164.5 -397v-4q0 -233 -165.5 -398.5t-413.5 -165.5q-246 0 -410 163.5t-164 396.5zM344 539q0 -143 94 -246t236 -103q147 0 237 100.5t90 244.5v4q0 145 -94 246.5t-237 101.5q-145 0 -235.5 -99.5t-90.5 -244.5v-4z " />
<glyph unicode="p" d="M156 -328v1409h247v-180q143 203 367 203q205 0 354.5 -152.5t149.5 -408.5v-4q0 -256 -149.5 -409t-354.5 -153q-223 0 -367 191v-496h-247zM397 539q0 -152 93.5 -249t222.5 -97q131 0 220 95t89 251v4q0 154 -90 250t-219 96t-222.5 -97.5t-93.5 -248.5v-4z" />
<glyph unicode="q" d="M100 539v4q0 258 148.5 409.5t353.5 151.5q221 0 369 -191v168h248v-1409h-248v508q-143 -203 -369 -203q-203 0 -352.5 153t-149.5 409zM350 539q0 -154 91 -250t220.5 -96t221.5 97t92 249v4q0 152 -92 249t-221 97q-131 0 -221.5 -94.5t-90.5 -251.5v-4z" />
<glyph unicode="r" horiz-adv-x="845" d="M156 0v1081h247v-243q115 276 383 264v-262h-14q-168 0 -268.5 -109.5t-100.5 -318.5v-412h-247z" />
<glyph unicode="s" horiz-adv-x="1024" d="M68 141l110 168q176 -133 354 -133q80 0 124 32t44 85v4q0 78 -217 143l-24 9q-74 20 -123 40.5t-104.5 56.5t-83 91t-27.5 129v4q0 150 109.5 240t275.5 90q211 0 397 -123l-98 -176q-168 102 -305 102q-72 0 -112 -29.5t-40 -78.5v-4q0 -49 54.5 -79t168.5 -67l21 -6 q72 -23 121 -44.5t103 -58t83 -90t29 -122.5v-5q0 -164 -113 -251.5t-289 -87.5q-253 -1 -458 161z" />
<glyph unicode="t" horiz-adv-x="839" d="M70 868v213h137v297h248v-297h290v-213h-290v-530q0 -135 133 -135q80 0 153 37v-203q-98 -55 -223 -55q-311 0 -311 317v569h-137z" />
<glyph unicode="u" horiz-adv-x="1269" d="M143 393v688h248v-614q0 -127 60.5 -195.5t171.5 -68.5q109 0 176 71.5t67 196.5v610h248v-1081h-248v168q-129 -190 -338 -191q-180 0 -282.5 113t-102.5 303z" />
<glyph unicode="v" horiz-adv-x="1218" d="M53 1081h266l291 -794l293 794h260l-442 -1089h-223z" />
<glyph unicode="w" horiz-adv-x="1763" d="M66 1081h253l218 -741l239 745h211l242 -745l221 741h248l-355 -1089h-221l-241 739l-244 -739h-221z" />
<glyph unicode="x" horiz-adv-x="1187" d="M61 0l398 549l-383 532h270l250 -356l250 356h264l-383 -526l399 -555h-270l-266 379l-264 -379h-265z" />
<glyph unicode="y" horiz-adv-x="1220" d="M53 1081h264l308 -802l280 802h258l-430 -1112q-66 -166 -145.5 -234.5t-210.5 -68.5q-135 0 -256 66l84 184q76 -41 145 -41q53 0 88 27.5t66 97.5z" />
<glyph unicode="z" horiz-adv-x="1146" d="M106 0v170l625 709h-602v202h918v-170l-625 -708h625v-203h-941z" />
<glyph unicode="{" horiz-adv-x="997" d="M106 494v188h54q127 0 179 52t52 173q0 18 -2 75.5t-2 72.5q0 168 99.5 264t365.5 145l43 -164q-176 -49 -227.5 -105t-51.5 -175q0 -20 2.5 -74.5t2.5 -77.5q0 -115 -53.5 -180t-159.5 -100q109 -35 161 -100.5t52 -180.5q0 -23 -2.5 -77t-2.5 -74q0 -119 51.5 -175.5 t227.5 -105.5l-43 -164q-266 49 -365.5 145.5t-99.5 264.5q0 14 2 71.5t2 75.5q0 121 -52 173.5t-179 52.5h-54z" />
<glyph unicode="|" horiz-adv-x="677" d="M240 -262v1896h198v-1896h-198z" />
<glyph unicode="}" horiz-adv-x="997" d="M102 -125q176 49 227.5 105.5t51.5 175.5q0 20 -2 74.5t-2 76.5q0 115 53 180.5t160 100.5q-109 35 -161 100.5t-52 179.5q0 23 2 77t2 75q0 119 -51 175t-228 105l43 164q266 -49 365.5 -145t99.5 -264q0 -14 -2 -71.5t-2 -76.5q0 -121 52.5 -173t179.5 -52h53v-188h-53 q-127 0 -179.5 -52.5t-52.5 -173.5q0 -18 2 -75.5t2 -71.5q0 -168 -99 -264.5t-366 -145.5z" />
<glyph unicode="~" horiz-adv-x="1013" d="M121 512q35 131 87 192.5t142 61.5q61 0 161.5 -41t131.5 -41q43 0 66.5 23.5t46.5 78.5l137 -41q-35 -131 -87 -193.5t-142 -62.5q-61 0 -162 41t-131 41q-43 0 -66.5 -23.5t-46.5 -78.5z" />
<glyph unicode="&#xa1;" horiz-adv-x="618" d="M164 0v72l78 909h137l76 -909v-72h-291zM174 1153v281h272v-281h-272z" />
<glyph unicode="&#xa2;" horiz-adv-x="1189" d="M106 723v4q0 236 160 399.5t400 163.5h18l31 156h180l-37 -182q133 -41 242 -160l-150 -160q-72 72 -141 103l-133 -668q150 2 282 133l144 -141q-182 -207 -445 -207h-12l-35 -176h-180l41 209q-162 57 -263.5 201.5t-101.5 324.5zM348 727q0 -102 46 -186t128 -127 l129 661q-129 -2 -216 -102.5t-87 -241.5v-4z" />
<glyph unicode="&#xa3;" horiz-adv-x="1318" d="M129 160l162 49v360h-162v213h162v189q0 229 127 356q123 127 344 127q279 0 452 -229l-192 -154q-59 76 -117.5 113t-140.5 37q-88 0 -150 -58q-70 -74 -69 -198v-183h510v-213h-510v-350h665v-219h-1081v160z" />
<glyph unicode="&#xa4;" horiz-adv-x="1474" d="M106 461v174h158q-2 27 -2 78v4q0 63 4 92h-160v174h193q63 213 217 344t365 131q174 0 291.5 -70.5t207.5 -199.5l-190 -141q-70 96 -141.5 141t-174.5 45q-106 0 -189 -66.5t-126 -183.5h440v-174h-479q-4 -53 -4 -88v-4q0 -29 4 -82h479v-174h-442q43 -121 129 -190.5 t205 -69.5q96 0 165.5 47t147.5 147l180 -131q-96 -139 -213.5 -214t-281.5 -75q-223 0 -380 132.5t-216 353.5h-187z" />
<glyph unicode="&#xa5;" horiz-adv-x="1404" d="M39 1434h293l375 -600l374 600h285l-475 -711h328v-182h-396v-150h396v-182h-396v-209h-241v209h-396v182h396v150h-396v182h326z" />
<glyph unicode="&#xa7;" horiz-adv-x="1294" d="M119 715v4q0 180 219 237q-113 72 -113 195v4q0 137 107.5 218t294.5 81q289 0 473 -194l-142 -140q-156 145 -329 146q-80 0 -123 -28t-43 -73v-4q0 -43 55 -74.5t215 -68.5q242 -55 342.5 -122t100.5 -177v-4q0 -180 -220 -238q113 -68 113 -194v-4q0 -137 -107.5 -218 t-293.5 -81q-289 0 -473 194l141 139q156 -145 330 -145q82 0 123.5 27.5t41.5 72.5v4q0 45 -57 77t-213 67q-240 53 -341 120.5t-101 178.5zM342 750q0 -45 55.5 -78t184.5 -66q145 -37 213 -37q70 0 113.5 32t43.5 79v4q0 45 -55 78t-184 65q-145 37 -213 37 q-70 0 -114 -31.5t-44 -78.5v-4z" />
<glyph unicode="&#xa8;" horiz-adv-x="1024" d="M182 1219v241h252v-241h-252zM590 1219v241h252v-241h-252z" />
<glyph unicode="&#xa9;" horiz-adv-x="1699" d="M109 713v4q0 305 217 523t526 218t524 -216t215 -521v-4q0 -305 -217 -523.5t-526 -218.5t-524 216.5t-215 521.5zM186 713q0 -276 190.5 -470t471.5 -194q283 0 474 195.5t191 472.5v4q0 276 -190 469.5t-471 193.5q-283 0 -474.5 -195.5t-191.5 -471.5v-4zM465 723v4 q0 168 112.5 284.5t284.5 116.5q180 0 305 -120l-96 -111q-102 92 -209 92q-102 0 -171.5 -75.5t-69.5 -184.5v-4q0 -106 69.5 -183t171.5 -77q111 0 213 96l99 -96q-133 -139 -316 -139q-168 0 -280.5 114.5t-112.5 282.5z" />
<glyph unicode="&#xaa;" horiz-adv-x="798" d="M109 578v118h553v-118h-553zM115 1010v4q0 92 67.5 141t177.5 49q74 0 156 -22v10q0 125 -143 125q-72 0 -170 -39l-39 111q109 51 227 51q133 0 199 -68q63 -61 63 -182v-352h-139v69q-72 -82 -188 -82q-90 0 -150.5 49.5t-60.5 135.5zM256 1016q0 -39 29.5 -62.5 t76.5 -23.5q66 0 110 34.5t44 88.5v37q-63 23 -129 22q-61 0 -96 -24.5t-35 -67.5v-4z" />
<glyph unicode="&#xab;" horiz-adv-x="1241" d="M90 532v17l340 450l188 -96l-270 -360l270 -363l-188 -96zM606 532v17l338 450l189 -96l-271 -360l271 -363l-189 -96z" />
<glyph unicode="&#xad;" horiz-adv-x="835" d="M115 506v244h606v-244h-606z" />
<glyph unicode="&#xae;" horiz-adv-x="1699" d="M109 713v4q0 305 217 523t526 218t524 -216t215 -521v-4q0 -305 -217 -523.5t-526 -218.5t-524 216.5t-215 521.5zM186 713q0 -276 190.5 -470t471.5 -194q283 0 474 195.5t191 472.5v4q0 276 -190 469.5t-471 193.5q-283 0 -474.5 -195.5t-191.5 -471.5v-4zM551 350v776 h346q152 0 236 -84q63 -59 63 -161v-4q0 -90 -48 -149.5t-132 -84.5l209 -293h-176l-189 268h-4h-158v-268h-147zM698 748h193q72 0 112.5 32.5t40.5 87.5v4q0 57 -40.5 89t-112.5 32h-193v-245z" />
<glyph unicode="&#xaf;" horiz-adv-x="1024" d="M162 1229v182h700v-182h-700z" />
<glyph unicode="&#xb0;" horiz-adv-x="964" d="M141 1112v4q0 133 102.5 231.5t237.5 98.5t238.5 -98.5t103.5 -231.5v-4q0 -133 -103.5 -232.5t-238.5 -99.5t-237.5 99.5t-102.5 232.5zM289 1112q0 -80 55 -138.5t137 -58.5t138.5 58.5t56.5 138.5v4q0 80 -55.5 137.5t-139.5 57.5q-82 0 -137 -57.5t-55 -137.5v-4z " />
<glyph unicode="&#xb1;" horiz-adv-x="1249" d="M80 225l174 162q164 -184 387 -184q117 0 186.5 56t69.5 151v4q0 98 -83 150t-232 52h-154v213h160q123 0 196.5 56.5t73.5 148.5v4q0 86 -66.5 139.5t-181.5 53.5q-172 0 -325 -180l-176 143q100 129 218.5 196.5t286.5 67.5q221 0 357.5 -107.5t136.5 -275.5v-4 q0 -231 -213 -336q252 -96 252 -323v-4q0 -188 -138.5 -310.5t-371.5 -122.5q-338 0 -557 250z" />
<glyph unicode="&#xb2;" horiz-adv-x="1255" d="M100 0v199l494 419q152 127 210 210t58 178q0 102 -65.5 162.5t-165.5 60.5q-94 0 -169 -51.5t-163 -163.5l-178 139q111 156 228.5 228.5t299.5 72.5q211 0 342 -117.5t131 -310.5v-4q0 -160 -82 -272.5t-290 -282.5l-295 -246h682v-221h-1037z" />
<glyph unicode="&#xb3;" horiz-adv-x="1265" d="M88 227l176 164q160 -188 377 -188q106 0 177 60.5t71 156.5v4q0 104 -89 162.5t-241 58.5h-117l-41 158l387 411h-620v220h948v-189l-399 -409q184 -25 303 -122.5t119 -281.5v-4q0 -199 -140.5 -326t-361.5 -127q-342 0 -549 252z" />
<glyph unicode="&#xb4;" horiz-adv-x="1024" d="M328 1219l217 335l225 -100l-250 -235h-192z" />
<glyph unicode="&#xb5;" horiz-adv-x="1740" d="M121 713v4q0 307 213 524t538.5 217t536.5 -215t211 -522v-4q0 -162 -64.5 -307.5t-181.5 -247.5l359 -352v-17h-369l-240 227q-123 -45 -256 -45q-326 0 -536.5 215.5t-210.5 522.5zM385 717q0 -213 138.5 -361.5t349 -148.5t347 146.5t136.5 359.5v4 q0 213 -138.5 361.5t-349.5 148.5t-347 -146.5t-136 -359.5v-4z" />
<glyph unicode="&#xb6;" horiz-adv-x="1140" d="M82 965v4q0 215 152.5 340t402.5 125h326v-1434h-254v500h-37q-262 0 -426 122t-164 343z" />
<glyph unicode="&#xb8;" horiz-adv-x="1024" d="M268 -248l185 268h186l-154 -358z" />
<glyph unicode="&#xb9;" horiz-adv-x="811" d="M53 1321l385 123h176v-1444h-249v1188l-259 -72z" />
<glyph unicode="&#xba;" horiz-adv-x="798" d="M90 1130v5q0 129 89 219t222 90q131 0 219.5 -89t88.5 -218v-4q0 -129 -89.5 -219.5t-222.5 -90.5q-131 0 -219 89t-88 218zM104 578v118h590v-118h-590zM233 1133q0 -76 48.5 -129.5t119.5 -53.5q74 0 119 52.5t45 127.5v5q0 76 -48 129t-120 53q-74 0 -119 -52.5 t-45 -127.5v-4z" />
<glyph unicode="&#xbb;" horiz-adv-x="1241" d="M109 178l270 361l-270 362l188 98l338 -450v-17l-338 -448zM623 178l270 361l-270 362l188 98l340 -450v-17l-340 -448z" />
<glyph unicode="&#xbc;" horiz-adv-x="3145" d="M53 1321l385 123h176v-1444h-249v1188l-259 -72zM668 -201l956 1753h225l-956 -1753h-225zM1825 502l796 942h215v-916h205v-206h-205v-322h-241v322h-723zM2124 528h471v568z" />
<glyph unicode="&#xbd;" horiz-adv-x="3006" d="M53 1321l385 123h176v-1444h-249v1188l-259 -72zM668 -201l956 1753h225l-956 -1753h-225zM1851 0v199l494 419q152 127 210 210t58 178q0 102 -65.5 162.5t-165.5 60.5q-94 0 -169 -51.5t-163 -163.5l-178 139q111 156 228.5 228.5t299.5 72.5q211 0 342 -117.5 t131 -310.5v-4q0 -160 -81.5 -272.5t-290.5 -282.5l-295 -246h682v-221h-1037z" />
<glyph unicode="&#xbe;" horiz-adv-x="3600" d="M88 227l176 164q160 -188 377 -188q106 0 177 60.5t71 156.5v4q0 104 -89 162.5t-241 58.5h-117l-41 158l387 411h-620v220h948v-189l-399 -409q184 -25 303 -122.5t119 -281.5v-4q0 -199 -140.5 -326t-361.5 -127q-342 0 -549 252zM1122 -201l957 1753h225l-956 -1753 h-226zM2279 502l797 942h215v-916h205v-206h-205v-322h-242v322h-722zM2578 528h471v568z" />
<glyph unicode="&#xbf;" horiz-adv-x="1107" d="M86 397v4q0 182 112.5 281.5t299.5 132.5l20 166h166l41 -332l-10 -10q-379 -14 -379 -229v-4q0 -88 63.5 -141.5t171.5 -53.5q182 0 334 162l154 -164q-201 -227 -494 -227q-217 0 -348 112.5t-131 302.5zM469 1153v281h274v-281h-274z" />
<glyph unicode="&#xc0;" horiz-adv-x="1617" d="M61 0l631 1444h234l630 -1444h-266l-145 346h-678l-148 -346h-258zM469 1788l225 100l217 -336h-192zM559 569h494l-248 574z" />
<glyph unicode="&#xc1;" horiz-adv-x="1617" d="M61 0l631 1444h234l630 -1444h-266l-145 346h-678l-148 -346h-258zM559 569h494l-248 574zM707 1552l217 336l225 -100l-250 -236h-192z" />
<glyph unicode="&#xc2;" horiz-adv-x="1617" d="M61 0l631 1444h234l630 -1444h-266l-145 346h-678l-148 -346h-258zM457 1550l237 299h230l237 -299h-196l-158 138l-158 -138h-192zM559 569h494l-248 574z" />
<glyph unicode="&#xc3;" horiz-adv-x="1617" d="M61 0l631 1444h234l630 -1444h-266l-145 346h-678l-148 -346h-258zM422 1573q35 131 87 193.5t142 62.5q61 0 161.5 -41t133.5 -41q41 0 64.5 22.5t48.5 79.5l137 -43q-35 -131 -87 -192.5t-142 -61.5q-61 0 -161.5 41t-133.5 41q-41 0 -64.5 -22.5t-48.5 -79.5zM559 569 h494l-248 574z" />
<glyph unicode="&#xc4;" horiz-adv-x="1617" d="M61 0l631 1444h234l630 -1444h-266l-145 346h-678l-148 -346h-258zM479 1552v242h252v-242h-252zM559 569h494l-248 574zM887 1552v242h252v-242h-252z" />
<glyph unicode="&#xc5;" horiz-adv-x="1617" d="M61 0l611 1401q-96 72 -97 178v4q0 90 71 156.5t163 66.5t162.5 -66.5t70.5 -156.5v-4q0 -106 -96 -178l610 -1401h-266l-145 346h-678l-148 -346h-258zM559 569h494l-248 574zM682 1579q0 -51 38 -88t89 -37t89 37t38 88v4q0 51 -38 88t-89 37t-89 -37t-38 -88v-4z" />
<glyph unicode="&#xc6;" horiz-adv-x="2140" d="M25 0l800 1434h1190v-226h-766v-372h674v-226h-674v-385h776v-225h-1028v346h-522l-190 -346h-260zM596 569h401v645h-41z" />
<glyph unicode="&#xc7;" horiz-adv-x="1511" d="M121 713v4q0 311 209 526t530 215q186 0 316.5 -57.5t244.5 -165.5l-161 -186q-193 178 -402 178q-203 0 -338 -146.5t-135 -359.5v-4q0 -213 135 -361.5t338 -148.5q123 0 217 46t195 140l162 -164q-113 -119 -239 -181t-298 -71l-135 -315l-215 90l162 238 q-258 47 -422 249t-164 474z" />
<glyph unicode="&#xc8;" d="M184 0v1434h1063v-226h-811v-372h719v-226h-719v-385h821v-225h-1073zM420 1788l225 100l217 -336h-192z" />
<glyph unicode="&#xc9;" d="M184 0v1434h1063v-226h-811v-372h719v-226h-719v-385h821v-225h-1073zM567 1552l217 336l226 -100l-250 -236h-193z" />
<glyph unicode="&#xca;" d="M184 0v1434h1063v-226h-811v-372h719v-226h-719v-385h821v-225h-1073zM358 1552l238 299h229l238 -299h-197l-157 138l-158 -138h-193z" />
<glyph unicode="&#xcb;" d="M184 0v1434h1063v-226h-811v-372h719v-226h-719v-385h821v-225h-1073zM381 1552v242h252v-242h-252zM788 1552v242h252v-242h-252z" />
<glyph unicode="&#xcc;" horiz-adv-x="649" d="M-12 1788l225 100l217 -336h-192zM199 0v1434h252v-1434h-252z" />
<glyph unicode="&#xcd;" horiz-adv-x="649" d="M199 0v1434h252v-1434h-252zM221 1552l217 336l226 -100l-250 -236h-193z" />
<glyph unicode="&#xce;" horiz-adv-x="649" d="M-27 1552l238 299h229l238 -299h-197l-157 138l-158 -138h-193zM199 0v1434h252v-1434h-252z" />
<glyph unicode="&#xcf;" horiz-adv-x="649" d="M-4 1552v242h252v-242h-252zM199 0v1434h252v-1434h-252zM403 1552v242h252v-242h-252z" />
<glyph unicode="&#xd0;" horiz-adv-x="1662" d="M92 608v226h154v600h534q334 0 548 -204t214 -509v-4q0 -307 -214 -512t-548 -205h-534v608h-154zM496 229h284q223 0 360.5 135.5t137.5 348.5v4q0 213 -137 350t-361 137h-284v-370h360v-226h-360v-379z" />
<glyph unicode="&#xd1;" horiz-adv-x="1617" d="M184 0v1434h234l768 -992v992h248v-1434h-211l-791 1020v-1020h-248zM422 1573q35 131 87 193.5t142 62.5q61 0 161.5 -41t133.5 -41q41 0 64.5 22.5t48.5 79.5l137 -43q-35 -131 -87 -192.5t-142 -61.5q-61 0 -161.5 41t-133.5 41q-41 0 -64.5 -22.5t-48.5 -79.5z" />
<glyph unicode="&#xd2;" horiz-adv-x="1740" d="M121 713v4q0 307 213 524t538.5 217t536.5 -215t211 -522v-4q0 -307 -213 -524.5t-538.5 -217.5t-536.5 215.5t-211 522.5zM385 717q0 -213 138.5 -361.5t349 -148.5t347 146.5t136.5 359.5v4q0 213 -138.5 361.5t-349.5 148.5t-347 -146.5t-136 -359.5v-4zM516 1788 l225 100l217 -336h-192z" />
<glyph unicode="&#xd3;" horiz-adv-x="1740" d="M121 713v4q0 307 213 524t538.5 217t536.5 -215t211 -522v-4q0 -307 -213 -524.5t-538.5 -217.5t-536.5 215.5t-211 522.5zM385 717q0 -213 138.5 -361.5t349 -148.5t347 146.5t136.5 359.5v4q0 213 -138.5 361.5t-349.5 148.5t-347 -146.5t-136 -359.5v-4zM782 1552 l217 336l226 -100l-250 -236h-193z" />
<glyph unicode="&#xd4;" horiz-adv-x="1740" d="M121 713v4q0 307 213 524t538.5 217t536.5 -215t211 -522v-4q0 -307 -213 -524.5t-538.5 -217.5t-536.5 215.5t-211 522.5zM385 717q0 -213 138.5 -361.5t349 -148.5t347 146.5t136.5 359.5v4q0 213 -138.5 361.5t-349.5 148.5t-347 -146.5t-136 -359.5v-4zM518 1552 l238 299h229l238 -299h-197l-158 138l-157 -138h-193z" />
<glyph unicode="&#xd5;" horiz-adv-x="1740" d="M121 713v4q0 307 213 524t538.5 217t536.5 -215t211 -522v-4q0 -307 -213 -524.5t-538.5 -217.5t-536.5 215.5t-211 522.5zM385 717q0 -213 138.5 -361.5t349 -148.5t347 146.5t136.5 359.5v4q0 213 -138.5 361.5t-349.5 148.5t-347 -146.5t-136 -359.5v-4zM483 1573 q35 131 87.5 193.5t142.5 62.5q61 0 161.5 -41t133.5 -41q41 0 64.5 22.5t47.5 79.5l137 -43q-35 -131 -87 -192.5t-142 -61.5q-61 0 -161.5 41t-133.5 41q-41 0 -64.5 -22.5t-47.5 -79.5z" />
<glyph unicode="&#xd6;" horiz-adv-x="1740" d="M121 713v4q0 307 213 524t538.5 217t536.5 -215t211 -522v-4q0 -307 -213 -524.5t-538.5 -217.5t-536.5 215.5t-211 522.5zM385 717q0 -213 138.5 -361.5t349 -148.5t347 146.5t136.5 359.5v4q0 213 -138.5 361.5t-349.5 148.5t-347 -146.5t-136 -359.5v-4zM541 1552v242 h252v-242h-252zM948 1552v242h252v-242h-252z" />
<glyph unicode="&#xd8;" horiz-adv-x="1740" d="M104 -10l203 227q-186 205 -186 496v4q0 307 213 524t538 217q233 0 418 -123l99 109h247l-202 -230q186 -203 186 -493v-4q0 -307 -213 -524.5t-539 -217.5q-233 0 -417 123l-99 -108h-248zM381 717q0 -174 94 -305l655 737q-115 82 -262 82q-211 0 -349 -148.5 t-138 -361.5v-4zM610 285q115 -82 262 -82q211 0 349.5 148.5t138.5 361.5v4q0 174 -94 305z" />
<glyph unicode="&#xd9;" horiz-adv-x="1550" d="M162 608v826h252v-816q0 -197 96 -303t266 -106t265.5 102.5t95.5 296.5v826h252v-813q0 -313 -164 -478.5t-453 -165.5q-285 0 -447.5 162t-162.5 469zM449 1778l225 100l217 -336h-193z" />
<glyph unicode="&#xda;" horiz-adv-x="1550" d="M162 608v826h252v-816q0 -197 96 -303t266 -106t265.5 102.5t95.5 296.5v826h252v-813q0 -313 -164 -478.5t-453 -165.5q-285 0 -447.5 162t-162.5 469zM659 1542l218 336l225 -100l-250 -236h-193z" />
<glyph unicode="&#xdb;" horiz-adv-x="1550" d="M162 608v826h252v-816q0 -197 96 -303t266 -106t265.5 102.5t95.5 296.5v826h252v-813q0 -313 -164 -478.5t-453 -165.5q-285 0 -447.5 162t-162.5 469zM424 1550l238 299h229l237 -299h-196l-158 138l-158 -138h-192z" />
<glyph unicode="&#xdc;" horiz-adv-x="1550" d="M162 608v826h252v-816q0 -197 96 -303t266 -106t265.5 102.5t95.5 296.5v826h252v-813q0 -313 -164 -478.5t-453 -165.5q-285 0 -447.5 162t-162.5 469zM446 1550v242h252v-242h-252zM854 1550v242h252v-242h-252z" />
<glyph unicode="&#xdd;" horiz-adv-x="1466" d="M37 1434h297l401 -635l406 635h289l-570 -863v-571h-254v565zM637 1542l217 336l225 -100l-250 -236h-192z" />
<glyph unicode="&#xde;" horiz-adv-x="1378" d="M184 0v1434h252v-226h314q250 0 397 -130t147 -347v-4q0 -233 -162.5 -361t-410.5 -128h-285v-238h-252zM436 463h293q141 0 225 71.5t84 186.5v4q0 123 -83 189.5t-226 66.5h-293v-518z" />
<glyph unicode="&#xdf;" horiz-adv-x="1269" d="M156 0v1028q0 223 131 352t356 129q203 0 321.5 -109.5t118.5 -275.5v-4q0 -225 -225 -350q311 -104 311 -364v-5q0 -197 -151 -305q-141 -101 -376 -101q-18 0 -36 1v190q152 4 234 61.5t82 160.5v4q0 96 -85 155.5t-231 77.5v168q231 113 232 285v4q0 88 -56.5 142 t-150.5 54q-102 0 -166 -71.5t-64 -190.5v-1036h-245z" />
<glyph unicode="&#xe0;" horiz-adv-x="1202" d="M82 311v4q0 174 121 264.5t317 90.5q158 0 299 -45v20q0 113 -68.5 172.5t-197.5 59.5q-147 0 -309 -68l-68 199q201 90 412 90q236 0 355.5 -119t119.5 -338v-641h-246v133q-131 -156 -350 -156q-162 0 -273.5 89t-111.5 245zM276 1454l226 100l217 -335h-193zM328 324 q0 -74 59 -117t150 -43q125 0 205.5 63.5t80.5 163.5v62q-111 43 -248 43q-117 0 -182 -45t-65 -123v-4z" />
<glyph unicode="&#xe1;" horiz-adv-x="1202" d="M82 311v4q0 174 121 264.5t317 90.5q158 0 299 -45v20q0 113 -68.5 172.5t-197.5 59.5q-147 0 -309 -68l-68 199q201 90 412 90q236 0 355.5 -119t119.5 -338v-641h-246v133q-131 -156 -350 -156q-162 0 -273.5 89t-111.5 245zM328 324q0 -74 59 -117t150 -43 q125 0 205.5 63.5t80.5 163.5v62q-111 43 -248 43q-117 0 -182 -45t-65 -123v-4zM481 1219l217 335l226 -100l-250 -235h-193z" />
<glyph unicode="&#xe2;" horiz-adv-x="1202" d="M82 311v4q0 174 121 264.5t317 90.5q158 0 299 -45v20q0 113 -68.5 172.5t-197.5 59.5q-147 0 -309 -68l-68 199q201 90 412 90q236 0 355.5 -119t119.5 -338v-641h-246v133q-131 -156 -350 -156q-162 0 -273.5 89t-111.5 245zM248 1219l237 299h230l237 -299h-196 l-158 137l-158 -137h-192zM328 324q0 -74 59 -117t150 -43q125 0 205.5 63.5t80.5 163.5v62q-111 43 -248 43q-117 0 -182 -45t-65 -123v-4z" />
<glyph unicode="&#xe3;" horiz-adv-x="1202" d="M82 311v4q0 174 121 264.5t317 90.5q158 0 299 -45v20q0 113 -68.5 172.5t-197.5 59.5q-147 0 -309 -68l-68 199q201 90 412 90q236 0 355.5 -119t119.5 -338v-641h-246v133q-131 -156 -350 -156q-162 0 -273.5 89t-111.5 245zM215 1239q35 131 87 193.5t142 62.5 q61 0 162 -41t133 -41q43 0 65.5 22.5t47.5 80.5l137 -43q-35 -131 -87 -192.5t-142 -61.5q-61 0 -161.5 40.5t-133.5 40.5q-43 0 -65.5 -22.5t-47.5 -79.5zM328 324q0 -74 59 -117t150 -43q125 0 205.5 63.5t80.5 163.5v62q-111 43 -248 43q-117 0 -182 -45t-65 -123v-4z " />
<glyph unicode="&#xe4;" horiz-adv-x="1202" d="M82 311v4q0 174 121 264.5t317 90.5q158 0 299 -45v20q0 113 -68.5 172.5t-197.5 59.5q-147 0 -309 -68l-68 199q201 90 412 90q236 0 355.5 -119t119.5 -338v-641h-246v133q-131 -156 -350 -156q-162 0 -273.5 89t-111.5 245zM270 1219v241h252v-241h-252zM328 324 q0 -74 59 -117t150 -43q125 0 205.5 63.5t80.5 163.5v62q-111 43 -248 43q-117 0 -182 -45t-65 -123v-4zM678 1219v241h252v-241h-252z" />
<glyph unicode="&#xe5;" horiz-adv-x="1202" d="M82 311v4q0 174 121 264.5t317 90.5q158 0 299 -45v20q0 113 -68.5 172.5t-197.5 59.5q-147 0 -309 -68l-68 199q201 90 412 90q236 0 355.5 -119t119.5 -338v-641h-246v133q-131 -156 -350 -156q-162 0 -273.5 89t-111.5 245zM328 324q0 -74 59 -117t150 -43 q125 0 205.5 63.5t80.5 163.5v62q-111 43 -248 43q-117 0 -182 -45t-65 -123v-4zM367 1438v4q0 90 70.5 156.5t162.5 66.5t163 -66.5t71 -156.5v-4q0 -90 -71 -157t-163 -67t-162.5 67t-70.5 157zM473 1438q0 -51 38 -88t89 -37t89 36.5t38 88.5v4q0 51 -38 88t-89 37 t-89 -37t-38 -88v-4z" />
<glyph unicode="&#xe6;" horiz-adv-x="1949" d="M82 311v4q0 174 120 264.5t314 90.5q156 0 297 -45v20q0 231 -264 232q-143 0 -305 -68l-68 199q201 90 408 90q276 0 379 -178q141 184 378 184q242 0 377 -167t135 -415q0 -45 -2 -69h-794q20 -129 104 -202t205 -73q162 0 295 129l145 -129q-172 -203 -444 -203 q-260 0 -418 185q-219 -182 -452 -183q-176 0 -293 88t-117 246zM328 324q0 -74 58 -117t146 -43q170 0 320 139q-31 78 -39 156q-104 37 -242 37q-115 0 -179 -45t-64 -123v-4zM1053 616h557q-12 125 -84 205t-191 80q-113 0 -189.5 -79t-92.5 -206z" />
<glyph unicode="&#xe7;" horiz-adv-x="1169" d="M96 535v4q0 233 161 399t400 166q262 0 433 -186l-154 -166q-129 135 -281 135q-133 0 -222 -100.5t-89 -243.5v-4q0 -147 91 -248t233 -101q150 0 280 136l150 -148q-84 -92 -177.5 -143t-222.5 -58l-133 -315l-217 90l164 242q-184 47 -300 196.5t-116 344.5z" />
<glyph unicode="&#xe8;" horiz-adv-x="1236" d="M96 537v4q0 236 149.5 399.5t379.5 163.5q246 0 382 -167t136 -415q0 -20 -4 -69h-795q20 -129 104 -202t207 -73q160 0 293 129l146 -129q-168 -203 -443 -203q-238 0 -396.5 157t-158.5 405zM285 1454l225 100l217 -335h-192zM342 616h555q-12 125 -84 205t-190 80 q-113 0 -189 -79t-92 -206z" />
<glyph unicode="&#xe9;" horiz-adv-x="1236" d="M96 537v4q0 236 149.5 399.5t379.5 163.5q246 0 382 -167t136 -415q0 -20 -4 -69h-795q20 -129 104 -202t207 -73q160 0 293 129l146 -129q-168 -203 -443 -203q-238 0 -396.5 157t-158.5 405zM342 616h555q-12 125 -84 205t-190 80q-113 0 -189 -79t-92 -206zM510 1219 l217 335l225 -100l-250 -235h-192z" />
<glyph unicode="&#xea;" horiz-adv-x="1236" d="M96 537v4q0 236 149.5 399.5t379.5 163.5q246 0 382 -167t136 -415q0 -20 -4 -69h-795q20 -129 104 -202t207 -73q160 0 293 129l146 -129q-168 -203 -443 -203q-238 0 -396.5 157t-158.5 405zM268 1219l238 299h229l238 -299h-197l-158 137l-157 -137h-193zM342 616h555 q-12 125 -84 205t-190 80q-113 0 -189 -79t-92 -206z" />
<glyph unicode="&#xeb;" horiz-adv-x="1236" d="M96 537v4q0 236 149.5 399.5t379.5 163.5q246 0 382 -167t136 -415q0 -20 -4 -69h-795q20 -129 104 -202t207 -73q160 0 293 129l146 -129q-168 -203 -443 -203q-238 0 -396.5 157t-158.5 405zM291 1219v241h252v-241h-252zM342 616h555q-12 125 -84 205t-190 80 q-113 0 -189 -79t-92 -206zM698 1219v241h252v-241h-252z" />
<glyph unicode="&#xec;" horiz-adv-x="585" d="M-43 1454l225 100l217 -335h-192zM170 0v1081h248v-1081h-248z" />
<glyph unicode="&#xed;" horiz-adv-x="585" d="M170 0v1081h248v-1081h-248zM186 1219l217 335l226 -100l-250 -235h-193z" />
<glyph unicode="&#xee;" horiz-adv-x="585" d="M-59 1219l237 299h230l237 -299h-196l-158 137l-158 -137h-192zM170 0v1081h248v-1081h-248z" />
<glyph unicode="&#xef;" horiz-adv-x="585" d="M-37 1219v241h252v-241h-252zM170 0v1081h248v-1081h-248zM371 1219v241h252v-241h-252z" />
<glyph unicode="&#xf0;" horiz-adv-x="1314" d="M96 508v4q0 213 136.5 348t338.5 135q145 0 285 -84l-215 293l-244 -108l-98 129l248 108l-119 162h285l49 -72l203 88l96 -129l-209 -90l182 -264q180 -252 180 -498v-4q0 -229 -154.5 -390t-412.5 -161q-236 0 -393.5 155t-157.5 378zM340 502q0 -131 90 -223.5 t227 -92.5q139 0 226.5 91.5t87.5 224.5v4q0 129 -90 218t-232 89q-139 0 -224 -87t-85 -220v-4z" />
<glyph unicode="&#xf1;" horiz-adv-x="1269" d="M156 0v1081h247v-168q129 190 338 191q180 0 282.5 -112.5t102.5 -303.5v-688h-247v614q0 127 -60.5 196t-171.5 69q-109 0 -176.5 -72t-67.5 -197v-610h-247zM256 1239q35 131 87 193.5t142 62.5q63 0 164 -41t133 -41q41 0 64.5 22.5t48.5 80.5l137 -43 q-35 -131 -87 -192.5t-142 -61.5q-61 0 -162.5 40.5t-134.5 40.5q-43 0 -65.5 -22.5t-47.5 -79.5z" />
<glyph unicode="&#xf2;" horiz-adv-x="1345" d="M96 535v4q0 236 166 400.5t412 164.5t410.5 -164t164.5 -397v-4q0 -233 -165.5 -398.5t-413.5 -165.5q-246 0 -410 163.5t-164 396.5zM326 1454l225 100l217 -335h-193zM344 539q0 -143 94 -246t236 -103q147 0 237 100.5t90 244.5v4q0 145 -94 246.5t-237 101.5 q-145 0 -235.5 -99.5t-90.5 -244.5v-4z" />
<glyph unicode="&#xf3;" horiz-adv-x="1345" d="M96 535v4q0 236 166 400.5t412 164.5t410.5 -164t164.5 -397v-4q0 -233 -165.5 -398.5t-413.5 -165.5q-246 0 -410 163.5t-164 396.5zM344 539q0 -143 94 -246t236 -103q147 0 237 100.5t90 244.5v4q0 145 -94 246.5t-237 101.5q-145 0 -235.5 -99.5t-90.5 -244.5v-4z M575 1219l218 335l225 -100l-250 -235h-193z" />
<glyph unicode="&#xf4;" horiz-adv-x="1345" d="M96 535v4q0 236 166 400.5t412 164.5t410.5 -164t164.5 -397v-4q0 -233 -165.5 -398.5t-413.5 -165.5q-246 0 -410 163.5t-164 396.5zM319 1219l238 299h229l238 -299h-197l-157 137l-158 -137h-193zM344 539q0 -143 94 -246t236 -103q147 0 237 100.5t90 244.5v4 q0 145 -94 246.5t-237 101.5q-145 0 -235.5 -99.5t-90.5 -244.5v-4z" />
<glyph unicode="&#xf5;" horiz-adv-x="1345" d="M96 535v4q0 236 166 400.5t412 164.5t410.5 -164t164.5 -397v-4q0 -233 -165.5 -398.5t-413.5 -165.5q-246 0 -410 163.5t-164 396.5zM285 1239q35 131 87 193.5t142 62.5q61 0 161.5 -41t133.5 -41q43 0 65.5 22.5t47.5 80.5l137 -43q-35 -131 -87 -192.5t-143 -61.5 q-61 0 -161.5 40.5t-132.5 40.5q-43 0 -66 -22.5t-47 -79.5zM344 539q0 -143 94 -246t236 -103q147 0 237 100.5t90 244.5v4q0 145 -94 246.5t-237 101.5q-145 0 -235.5 -99.5t-90.5 -244.5v-4z" />
<glyph unicode="&#xf6;" horiz-adv-x="1345" d="M96 535v4q0 236 166 400.5t412 164.5t410.5 -164t164.5 -397v-4q0 -233 -165.5 -398.5t-413.5 -165.5q-246 0 -410 163.5t-164 396.5zM342 1219v241h252v-241h-252zM344 539q0 -143 94 -246t236 -103q147 0 237 100.5t90 244.5v4q0 145 -94 246.5t-237 101.5 q-145 0 -235.5 -99.5t-90.5 -244.5v-4zM750 1219v241h251v-241h-251z" />
<glyph unicode="&#xf8;" horiz-adv-x="1345" d="M66 -10l163 182q-133 156 -133 363v4q0 236 166 400.5t412 164.5q172 0 309 -88l72 78h225l-166 -187q135 -152 135 -364v-4q0 -233 -165.5 -398.5t-413.5 -165.5q-170 0 -310 88l-69 -73h-225zM338 539q0 -102 51 -187l447 492q-76 49 -166 49q-147 0 -239.5 -101.5 t-92.5 -248.5v-4zM508 233q72 -47 166 -47q150 0 242 101.5t92 247.5v4q0 100 -52 188z" />
<glyph unicode="&#xf9;" horiz-adv-x="1269" d="M143 393v688h248v-614q0 -127 60.5 -195.5t171.5 -68.5q109 0 176 71.5t67 196.5v610h248v-1081h-248v168q-129 -190 -338 -191q-180 0 -282.5 113t-102.5 303zM313 1452l226 100l217 -335h-193z" />
<glyph unicode="&#xfa;" horiz-adv-x="1269" d="M143 393v688h248v-614q0 -127 60.5 -195.5t171.5 -68.5q109 0 176 71.5t67 196.5v610h248v-1081h-248v168q-129 -190 -338 -191q-180 0 -282.5 113t-102.5 303zM510 1217l217 335l225 -100l-250 -235h-192z" />
<glyph unicode="&#xfb;" horiz-adv-x="1269" d="M143 393v688h248v-614q0 -127 60.5 -195.5t171.5 -68.5q109 0 176 71.5t67 196.5v610h248v-1081h-248v168q-129 -190 -338 -191q-180 0 -282.5 113t-102.5 303zM283 1219l237 299h230l237 -299h-196l-158 137l-158 -137h-192z" />
<glyph unicode="&#xfc;" horiz-adv-x="1269" d="M143 393v688h248v-614q0 -127 60.5 -195.5t171.5 -68.5q109 0 176 71.5t67 196.5v610h248v-1081h-248v168q-129 -190 -338 -191q-180 0 -282.5 113t-102.5 303zM305 1219v241h252v-241h-252zM713 1219v241h252v-241h-252z" />
<glyph unicode="&#xfd;" horiz-adv-x="1220" d="M53 1081h264l308 -802l280 802h258l-430 -1112q-66 -166 -145.5 -234.5t-210.5 -68.5q-135 0 -256 66l84 184q76 -41 145 -41q53 0 88 27.5t66 97.5zM500 1217l217 335l225 -100l-250 -235h-192z" />
<glyph unicode="&#xfe;" d="M156 -328v1823h247v-594q143 203 367 203q205 0 354.5 -152.5t149.5 -408.5v-4q0 -256 -149.5 -409t-354.5 -153q-223 0 -367 191v-496h-247zM397 539q0 -152 93.5 -249t222.5 -97q131 0 220 95t89 251v4q0 154 -90 250t-219 96t-222.5 -97.5t-93.5 -248.5v-4z" />
<glyph unicode="&#xff;" horiz-adv-x="1220" d="M53 1081h264l308 -802l280 802h258l-430 -1112q-66 -166 -145.5 -234.5t-210.5 -68.5q-135 0 -256 66l84 184q76 -41 145 -41q53 0 88 27.5t66 97.5zM281 1219v241h251v-241h-251zM688 1219v241h252v-241h-252z" />
<glyph unicode="&#x152;" horiz-adv-x="2248" d="M121 713v4q0 307 214 512t548 205h1241v-226h-766v-372h674v-226h-674v-385h776v-225h-1251q-334 0 -548 204t-214 509zM385 717q0 -213 137 -350.5t361 -137.5h223v975h-223q-223 0 -360.5 -135t-137.5 -348v-4z" />
<glyph unicode="&#x153;" horiz-adv-x="2129" d="M96 535v4q0 233 166 399t406 166q135 0 247.5 -60.5t184.5 -162.5q70 104 178 163.5t240 59.5q246 0 381 -167t135 -415q0 -20 -4 -69h-795q20 -129 105 -202t206 -73q162 0 295 129l146 -129q-172 -203 -443 -203q-139 0 -256 60.5t-190 167.5q-72 -104 -187.5 -166 t-253.5 -62q-233 0 -397 164.5t-164 395.5zM344 539q0 -143 92 -246t232 -103q141 0 230 100.5t89 244.5v4q0 145 -92 246.5t-231 101.5q-141 0 -230.5 -100.5t-89.5 -243.5v-4zM1233 616h557q-14 127 -85 206t-189 79q-113 0 -190 -79t-93 -206z" />
<glyph unicode="&#x178;" horiz-adv-x="1466" d="M37 1434h297l401 -635l406 635h289l-570 -863v-571h-254v565zM403 1550v242h252v-242h-252zM811 1550v242h252v-242h-252z" />
<glyph unicode="&#x2c6;" horiz-adv-x="1024" d="M160 1219l237 299h230l237 -299h-196l-158 137l-158 -137h-192z" />
<glyph unicode="&#x2dc;" horiz-adv-x="1024" d="M125 1239q35 131 87 193.5t142 62.5q61 0 161.5 -41t133.5 -41q43 0 65.5 22.5t47.5 80.5l137 -43q-35 -131 -87 -192.5t-142 -61.5q-61 0 -161.5 40.5t-133.5 40.5q-43 0 -65.5 -22.5t-47.5 -79.5z" />
<glyph unicode="&#x2013;" horiz-adv-x="1081" d="M115 510v235h852v-235h-852z" />
<glyph unicode="&#x2014;" horiz-adv-x="1839" d="M115 510v235h1609v-235h-1609z" />
<glyph unicode="&#x2018;" horiz-adv-x="550" d="M129 1104q0 166 78 247t237 93l27 -107q-175 -32 -175 -169q0 -10 1 -21h104v-283h-272v240z" />
<glyph unicode="&#x2019;" horiz-adv-x="550" d="M80 961q175 32 175 170q0 11 -1 22h-104v281h272v-240q0 -166 -78 -247t-238 -93z" />
<glyph unicode="&#x201a;" horiz-adv-x="550" d="M70 -193q175 34 175 172q0 10 -1 21h-105v281h273v-238q0 -166 -78 -247t-238 -93z" />
<glyph unicode="&#x201c;" horiz-adv-x="1026" d="M129 1104q0 166 78 247t237 93l27 -107q-175 -32 -175 -169q0 -10 1 -21h104v-283h-272v240zM604 864v240q0 166 78 247t238 93l26 -107q-177 -33 -177 -172q0 -9 1 -18h107v-283h-273z" />
<glyph unicode="&#x201d;" horiz-adv-x="1026" d="M80 961q175 32 175 170q0 11 -1 22h-104v281h272v-240q0 -166 -78 -247t-238 -93zM555 961q175 32 175 170q0 11 -1 22h-104v281h272v-240q0 -166 -78 -247t-237 -93z" />
<glyph unicode="&#x201e;" horiz-adv-x="1026" d="M70 -193q175 34 175 172q0 10 -1 21h-105v281h273v-238q0 -166 -78 -247t-238 -93zM545 -193q175 34 175 172q0 10 -1 21h-105v281h273v-238q0 -166 -78 -247t-238 -93z" />
<glyph unicode="&#x2022;" horiz-adv-x="1005" d="M213 719v4q0 119 86 203t203 84q119 0 205 -84t86 -203v-4q0 -119 -85 -203t-206 -84q-119 0 -204 84t-85 203z" />
<glyph unicode="&#x2026;" horiz-adv-x="1622" d="M139 0v274h267v-274h-267zM678 0v274h266v-274h-266zM1217 0v274h266v-274h-266z" />
<glyph unicode="&#x2039;" horiz-adv-x="724" d="M90 532v17l340 450l188 -96l-270 -360l270 -363l-188 -96z" />
<glyph unicode="&#x203a;" horiz-adv-x="724" d="M109 178l270 361l-270 362l188 98l338 -450v-17l-338 -448z" />
<glyph unicode="&#x2122;" horiz-adv-x="1413" d="M53 1323v111h510v-111h-194v-520h-121v520h-195zM698 803v631h129l191 -299l190 299h125v-631h-116v448l-195 -303h-12l-195 303v-448h-117z" />
<glyph unicode="&#xe000;" horiz-adv-x="1080" d="M0 1080h1080v-1080h-1080v1080z" />
<glyph unicode="&#xfb01;" horiz-adv-x="1355" d="M74 868v207h137v78q0 180 88 268q86 86 244 86q104 0 200 -28v-209q-80 27 -145 26q-143 0 -143 -163v-60h286v-205h-282v-868h-248v868h-137zM930 1247v236h266v-236h-266zM940 0v1081h248v-1081h-248z" />
<glyph unicode="&#xfb02;" horiz-adv-x="1355" d="M74 868v207h137v78q0 180 88 268q86 86 244 86q104 0 200 -28v-209q-80 27 -145 26q-143 0 -143 -163v-60h286v-205h-282v-868h-248v868h-137zM940 0v1495h248v-1495h-248z" />
<glyph unicode="&#xfb03;" horiz-adv-x="2125" d="M74 868v207h137v78q0 180 88 268q86 86 244 86q104 0 200 -28v-209q-80 27 -145 26q-143 0 -143 -163v-60h286v-205h-282v-868h-248v868h-137zM844 868v207h137v78q0 180 88 268q86 86 244 86q104 0 200 -28v-209q-80 27 -145 26q-143 0 -143 -163v-60h286v-205h-282 v-868h-248v868h-137zM1700 1247v236h266v-236h-266zM1710 0v1081h248v-1081h-248z" />
<glyph unicode="&#xfb04;" horiz-adv-x="2125" d="M74 868v207h137v78q0 180 88 268q86 86 244 86q104 0 200 -28v-209q-80 27 -145 26q-143 0 -143 -163v-60h286v-205h-282v-868h-248v868h-137zM844 868v207h137v78q0 180 88 268q86 86 244 86q104 0 200 -28v-209q-80 27 -145 26q-143 0 -143 -163v-60h286v-205h-282 v-868h-248v868h-137zM1710 0v1495h248v-1495h-248z" />
</font>
</defs></svg> 